{
  "currentPage": 1,
  "hasNextPage": true,
  "totalPages": 250,
  "totalResults": 5000,
  "results": [
    {
      "id": "101922",
      "malId": 38000,
      "title": {
        "romaji": "Kimetsu no Yaiba",
        "english": "Demon Slayer: Kimetsu no Yaiba",
        "native": "鬼滅の刃",
        "userPreferred": "Kimetsu no Yaiba"
      },
      "status": "Completed",
      "image": "https://s4.anilist.co/file/anilistcdn/media/anime/cover/large/bx101922-PEn1CTc93blC.jpg",
      "cover": "https://s4.anilist.co/file/anilistcdn/media/anime/banner/101922-YfZhKBUDDS6L.jpg",
      "popularity": 644817,
      "totalEpisodes": 26,
      "currentEpisode": null,
      "countryOfOrigin": "JP",
      "description": "It is the Taisho Period in Japan. Tanjiro, a kindhearted boy who sells charcoal for a living, finds his family slaughtered by a demon. To make matters worse, his younger sister Nezuko, the sole survivor, has been transformed into a demon herself. Though devastated by this grim reality, Tanjiro resolves to become a “demon slayer” so that he can turn his sister back into a human, and kill the demon that massacred his family.<br>\n<br>\n(Source: Crunchyroll)",
      "genres": ["Action", "Adventure", "Drama", "Fantasy", "Supernatural"],
      "rating": 84,
      "color": "#4B4A95",
      "type": "TV",
      "releaseDate": 2019
    },
    {
      "id": "112151",
      "malId": 40456,
      "title": {
        "romaji": "Kimetsu no Yaiba: Mugen Ressha-hen",
        "english": "Demon Slayer -Kimetsu no Yaiba- The Movie: Mugen Train",
        "native": "鬼滅の刃 無限列車編",
        "userPreferred": "Kimetsu no Yaiba: Mugen Ressha-hen"
      },
      "status": "Completed",
      "image": "https://s4.anilist.co/file/anilistcdn/media/anime/cover/large/bx112151-1qlQwPB1RrJe.png",
      "cover": "https://s4.anilist.co/file/anilistcdn/media/anime/banner/112151-eHCBz19nf2yC.jpg",
      "popularity": 321243,
      "totalEpisodes": 1,
      "currentEpisode": null,
      "countryOfOrigin": "JP",
      "description": "This Demon Slayer movie sees Tanjiro Kamado and friends from the Demon Slayer corps board the Infinity Train on a new mission to investigate a mysterious series of disappearances, perpetrated by a demon who has been tormenting people and killing the demon slayers who oppose it.",
      "genres": [
        "Action",
        "Adventure",
        "Drama",
        "Fantasy",
        "Mystery",
        "Supernatural"
      ],
      "rating": 85,
      "color": "#5dc9f1",
      "type": "MOVIE",
      "releaseDate": 2020
    },
    {
      "id": "112301",
      "malId": 40496,
      "title": {
        "romaji": "Maou Gakuin no Futekigousha: Shijou Saikyou no Maou no Shiso, Tensei shite Shison-tachi no Gakkou e Kayou",
        "english": "The Misfit of Demon King Academy: History’s Strongest Demon King Reincarnates and Goes to School with His Descendants",
        "native": "魔王学院の不適合者 ～史上最強の魔王の始祖、転生して子孫たちの学校へ通う～",
        "userPreferred": "Maou Gakuin no Futekigousha: Shijou Saikyou no Maou no Shiso, Tensei shite Shison-tachi no Gakkou e Kayou"
      },
      "status": "Completed",
      "image": "https://s4.anilist.co/file/anilistcdn/media/anime/cover/large/bx112301-P1K5zjiQfacn.jpg",
      "cover": "https://s4.anilist.co/file/anilistcdn/media/anime/banner/112301-e50SRjhGDGUu.jpg",
      "popularity": 164212,
      "totalEpisodes": 13,
      "currentEpisode": null,
      "countryOfOrigin": "JP",
      "description": "Anos, the Demon King of Tyranny, has defeated humans, spirits, and gods alike. But even demon kings get tired of all the fighting sometimes! Hoping for a more peaceful life, Anos decides to reincarnate himself. When he wakes two thousand years later, though, he finds the world has become too peaceful--his descendants have grown weak and magic is in serious decline. Intending to reclaim his rightful place, he enrolls in Demon King Academy, where he finds that his magical power is off the charts. Literally. And because they can't measure his power, the faculty and other students regard Anos as a misfit. With the support of Misha, the one student he manages to befriend, the misfit (Demon King) begins his climb up the demon ranks!\n<br><br>\n(Source: Square Enix Manga & Books)",
      "genres": ["Action", "Comedy", "Fantasy"],
      "rating": 73,
      "color": "#865de4",
      "type": "TV",
      "releaseDate": 2020
    },
    {
      "id": "101004",
      "malId": 37210,
      "title": {
        "romaji": "Isekai Maou to Shoukan Shoujo no Dorei Majutsu",
        "english": "How NOT to Summon a Demon Lord",
        "native": "異世界魔王と召喚少女の奴隷魔術",
        "userPreferred": "Isekai Maou to Shoukan Shoujo no Dorei Majutsu"
      },
      "status": "Completed",
      "image": "https://s4.anilist.co/file/anilistcdn/media/anime/cover/large/bx101004-rJLBIWGypbYK.png",
      "cover": "https://s4.anilist.co/file/anilistcdn/media/anime/banner/101004-D0uuwlijGA0y.jpg",
      "popularity": 135288,
      "totalEpisodes": 12,
      "currentEpisode": null,
      "countryOfOrigin": "JP",
      "description": "In the MMORPG Cross Reverie, Takuma Sakamoto is so powerful that he is lauded as the “Demon Lord” by other players. One day, he is summoned to another world – but with the same appearance he had in the game! There, he meets two girls who both proclaim themselves to be his Summoner. They had performed an Enslavement Ritual to turn him into their Summon... but that's when Takuma's passive ability <> activated! Instead, it was the girls who had become enslaved! Though Takuma may have been the strongest Sorcerer there was, he had no idea how to talk with other people. That's when he makes his choice: to act based on his persona from the game!<br><br>\n\n“Amazing? But of course... I am Diablo, the being known and feared as the Demon Lord!”<br><br>\n\nSo begins a tale of adventure with an earth-shakingly powerful Demon Lord (or at least someone who acts like one) taking on another world!<br><br>\n\n(Source: J-Novel Club)",
      "genres": ["Comedy", "Ecchi", "Fantasy"],
      "rating": 66,
      "color": "#f1bb1a",
      "type": "TV",
      "releaseDate": 2018
    },
    {
      "id": "107693",
      "malId": 39196,
      "title": {
        "romaji": "Mairimashita! Iruma-kun",
        "english": "Welcome to Demon School! Iruma-kun",
        "native": "魔入りました！入間くん",
        "userPreferred": "Mairimashita! Iruma-kun"
      },
      "status": "Completed",
      "image": "https://s4.anilist.co/file/anilistcdn/media/anime/cover/large/bx107693-A9bSSFAMxA6j.jpg",
      "cover": "https://s4.anilist.co/file/anilistcdn/media/anime/banner/107693-h0syT88giDiw.jpg",
      "popularity": 97382,
      "totalEpisodes": 23,
      "currentEpisode": null,
      "countryOfOrigin": "JP",
      "description": "Suzuki Iruma has just been abandoned and sold to a demon by his irresponsible parents! Surprisingly, the next thing he knows he's living with the demon who has adopted him as his new grandson, and has been transferred into a school in the demon world where his new \"demon\" grandfather works as the principal. Thus begins the cowardly Iruma-kun's extraordinary school life among the otherworldly as he faces his true self, takes on challenges, and rises to become someone great...",
      "genres": ["Comedy", "Fantasy"],
      "rating": 77,
      "color": "#f18635",
      "type": "TV",
      "releaseDate": 2019
    },
    {
      "id": "7724",
      "malId": 7724,
      "title": {
        "romaji": "Shiki",
        "english": "Shiki",
        "native": "屍鬼",
        "userPreferred": "Shiki"
      },
      "status": "Completed",
      "image": "https://s4.anilist.co/file/anilistcdn/media/anime/cover/large/bx7724-NwNnRsI34eDa.jpg",
      "cover": "https://s4.anilist.co/file/anilistcdn/media/anime/banner/7724.jpg",
      "popularity": 90681,
      "totalEpisodes": 22,
      "currentEpisode": null,
      "countryOfOrigin": "JP",
      "description": "During a fiercely hot summer in Sotoba, a peaceful and quiet village with a population of 1300 people, a series of bizarre deaths begin to occur. At the same time, a strange family moves into a long abandoned mansion in the region. After supposedly visiting this strange family, the fashionable Shimizu Megumi goes missing and the entire village goes out in search for her. ",
      "genres": ["Horror", "Mystery", "Supernatural", "Thriller"],
      "rating": 75,
      "color": "#a18635",
      "type": "TV",
      "releaseDate": 2010
    },
    {
      "id": "117448",
      "malId": 41623,
      "title": {
        "romaji": "Isekai Maou to Shoukan Shoujo no Dorei Majutsu Ω",
        "english": "How NOT to Summon a Demon Lord Ω",
        "native": "異世界魔王と召喚少女の奴隷魔術Ω",
        "userPreferred": "Isekai Maou to Shoukan Shoujo no Dorei Majutsu Ω"
      },
      "status": "Completed",
      "image": "https://s4.anilist.co/file/anilistcdn/media/anime/cover/large/bx117448-bsPgVDD85sjB.jpg",
      "cover": "https://s4.anilist.co/file/anilistcdn/media/anime/banner/117448-zkxeZbaObKUZ.jpg",
      "popularity": 82083,
      "totalEpisodes": 10,
      "currentEpisode": null,
      "countryOfOrigin": "JP",
      "description": "The second season of <i>Isekai Maou to Shoukan Shoujo no Dorei Majutsu</i>.<br>\n<br>\nDiablo is back! You know…the Demon Lord from another world? Traveling through the woods with Rem and Shera, they encounter a lone girl in tatters, pursued by a powerful Paladin.<br>\n<br>\nYou know what that means—Diablo will have to try and hide his lack of social skills once again (and come to her rescue, of course). Let the enchanting adventures continue!<br>\n<br>\n(Source: Funimation)",
      "genres": ["Comedy", "Ecchi", "Fantasy"],
      "rating": 66,
      "color": "#e4c95d",
      "type": "TV",
      "releaseDate": 2021
    },
    {
      "id": "130588",
      "malId": 48417,
      "title": {
        "romaji": "Maou Gakuin no Futekigousha: Shijou Saikyou no Maou no Shiso, Tensei shite Shison-tachi no Gakkou e Kayou II",
        "english": "The Misfit of Demon King Academy Ⅱ: History's Strongest Demon King Reincarnates and Goes to School with His Descendants",
        "native": "魔王学院の不適合者 ～史上最強の魔王の始祖、転生して子孫たちの学校へ通う～ Ⅱ",
        "userPreferred": "Maou Gakuin no Futekigousha: Shijou Saikyou no Maou no Shiso, Tensei shite Shison-tachi no Gakkou e Kayou II"
      },
      "status": "Ongoing",
      "image": "https://s4.anilist.co/file/anilistcdn/media/anime/cover/large/bx130588-zYz8Gp2kZfTm.jpg",
      "cover": "https://s4.anilist.co/file/anilistcdn/media/anime/banner/130588-TVZlsARgfLfm.jpg",
      "popularity": 71683,
      "totalEpisodes": 6,
      "currentEpisode": 6,
      "countryOfOrigin": "JP",
      "description": "As peace returns to the demon realm, Anos Voldigoad wishes nothing more than to put his reputation as the Demon King of Tyranny to rest and go back to being a misfit at the prestigious Demon King Academy. Unfortunately, any tranquility is fleeting: sinister demons, kings, and deities plot Anos's demise from the shadows.\n<br><br>\nRumors spread about the \"Child of God,\" a being whose power may rival that of Anos. To uncover the truth and eliminate the potential threat, Anos must journey deep into the land of spirits. However, the spirit world is shrouded in mystery, and it may only be entered after undergoing a series of difficult trials.\n<br><br>\nWith unrivaled power and confidence, Anos braces himself to defeat various formidable enemies with grandiose titles. But he—with the assistance of his trusted allies—will barely have to break a sweat as the true Demon King of Tyranny.\n<br><br>\n(Source: MAL Rewrite)",
      "genres": ["Action", "Fantasy"],
      "rating": 70,
      "color": "#e45dc9",
      "type": "TV",
      "releaseDate": 2023
    },
    {
      "id": "7088",
      "malId": 7088,
      "title": {
        "romaji": "Ichiban Ushiro no Daimaou",
        "english": "Demon King Daimao",
        "native": "いちばんうしろの大魔王",
        "userPreferred": "Ichiban Ushiro no Daimaou"
      },
      "status": "Completed",
      "image": "https://s4.anilist.co/file/anilistcdn/media/anime/cover/large/bx7088-Y38q7jaBwlTZ.png",
      "cover": "https://s4.anilist.co/file/anilistcdn/media/anime/banner/7088-Ty2MX5FwLwhQ.jpg",
      "popularity": 69158,
      "totalEpisodes": 12,
      "currentEpisode": null,
      "countryOfOrigin": "JP",
      "description": "After enrolling at the Constant Magic Academy, Akuto Sai discovers he's not just a gifted student with magical powers; he's destined to become the Demon King. And though he's not that crazy about the idea, it drives the girls wild! From the sexy school girls in his class to the skin-obsessed android who's programmed to seduce him, Akuto has no shortage of wacky girl trouble. How much temptation can a demon king take?<br><br>\n(Source: Sentai Filmworks)",
      "genres": ["Action", "Comedy", "Ecchi", "Fantasy"],
      "rating": 63,
      "color": "#e4505d",
      "type": "TV",
      "releaseDate": 2010
    },
    {
      "id": "111428",
      "malId": 40397,
      "title": {
        "romaji": "Maou-jou de Oyasumi",
        "english": "Sleepy Princess in the Demon Castle",
        "native": "魔王城でおやすみ",
        "userPreferred": "Maou-jou de Oyasumi"
      },
      "status": "Completed",
      "image": "https://s4.anilist.co/file/anilistcdn/media/anime/cover/large/bx111428-uL8XLKQ4c09u.png",
      "cover": "https://s4.anilist.co/file/anilistcdn/media/anime/banner/111428-jGHk7h5pg6ab.jpg",
      "popularity": 49880,
      "totalEpisodes": 12,
      "currentEpisode": null,
      "countryOfOrigin": "JP",
      "description": "Sshhh! Princess Syalis is trying to get a good night's sleep. Some shut-eye. Forty winks. Catch some Z's. Long ago in olden times when people and demons lived together in—well, disharmony, really—a demon king kidnaps a human princess and imprisons her in his castle. Bereft, the princess's subjects beat their chests in anguish…until a hero arises to spearhead Project Rescue Our Princess! While waiting for her knight in shining armor, what's an imprisoned princess to do...? Teddy-bear guards with bat wings are all very well, but her dungeon cell is bo-o-o-ring! So, she decides to wile away the long hours by sleeping. Now if only she could get comfortable…and didn't suffer from insomnia...<br>\n<br>\n(Source: VIZ Media)",
      "genres": ["Comedy", "Fantasy", "Slice of Life"],
      "rating": 78,
      "color": "#e45d86",
      "type": "TV",
      "releaseDate": 2020
    },
    {
      "id": "104252",
      "malId": 38297,
      "title": {
        "romaji": "Maou-sama, Retry!",
        "english": "Demon Lord, Retry!",
        "native": "魔王様、リトライ!",
        "userPreferred": "Maou-sama, Retry!"
      },
      "status": "Completed",
      "image": "https://s4.anilist.co/file/anilistcdn/media/anime/cover/large/bx104252-DTFPQy0uae3o.png",
      "cover": "https://s4.anilist.co/file/anilistcdn/media/anime/banner/104252-qeVvmiAPExqQ.jpg",
      "popularity": 47817,
      "totalEpisodes": 12,
      "currentEpisode": null,
      "countryOfOrigin": "JP",
      "description": "The story centers on Akira Ono, a regular guy who works at a company that manages an online game. He often plays the game as his character \"Maou\" (Dark Lord). But one day, when he logs on, he is whisked into the game's fantasy world as his character. There, he meets a one-legged girl, and begins his adventures alongside her. But as he is a powerful \"Dark Lord,\" various nations and holy maidens journey to defeat him, and he stirs up trouble everywhere he goes.<br><br>\n\n(Source: Anime News Network)",
      "genres": ["Action", "Adventure", "Comedy", "Fantasy"],
      "rating": 62,
      "color": "#4393e4",
      "type": "TV",
      "releaseDate": 2019
    },
    {
      "id": "107490",
      "malId": 39071,
      "title": {
        "romaji": "Machikado Mazoku",
        "english": "The Demon Girl Next Door",
        "native": "まちカドまぞく",
        "userPreferred": "Machikado Mazoku"
      },
      "status": "Completed",
      "image": "https://s4.anilist.co/file/anilistcdn/media/anime/cover/large/bx107490-wolT0UvNSetx.png",
      "cover": "https://s4.anilist.co/file/anilistcdn/media/anime/banner/107490-wQ8rfnjOa7TO.jpg",
      "popularity": 45181,
      "totalEpisodes": 12,
      "currentEpisode": null,
      "countryOfOrigin": "JP",
      "description": "When Yuuko Yoshida wakes up one morning to discover that she’s sprouted horns and a tail, she learns something that her mother has been meaning to tell her. You know that battle between the Light and Dark that’s been going on since the dawn of time? Well, Yuuko’s family are the bad guys.<br>\n<br>\nSo now, Yuuko has to defeat a local magical girl to win back some of her family’s vanquished power so they can afford to go to the all-you-can-eat pancake restaurant. And, of course, it turns out that the Magical Girl goes to Yuuko’s school, but Momo’s really nice and keeps rescuing Yuuko, which is pretty embarrassing and leaves Yuuko rather conflicted… but… all you can eat pancakes?<br>\n<br>\n(Source: Sentai Filmworks)",
      "genres": ["Comedy", "Fantasy", "Mahou Shoujo", "Slice of Life"],
      "rating": 75,
      "color": "#DE5B9A",
      "type": "TV",
      "releaseDate": 2019
    },
    {
      "id": "118399",
      "malId": 41911,
      "title": {
        "romaji": "Hanyou no Yashahime",
        "english": "Yashahime: Princess Half-Demon",
        "native": "半妖の夜叉姫",
        "userPreferred": "Hanyou no Yashahime"
      },
      "status": "Completed",
      "image": "https://s4.anilist.co/file/anilistcdn/media/anime/cover/large/bx118399-sgHg8NQVQixB.png",
      "cover": "https://s4.anilist.co/file/anilistcdn/media/anime/banner/118399-4KrsagqbRsgD.jpg",
      "popularity": 27229,
      "totalEpisodes": 24,
      "currentEpisode": null,
      "countryOfOrigin": "JP",
      "description": "The daughters of Sesshomaru and Inuyasha set out on a journey transcending time!\n<br><br>\nIn Feudal Japan, Half-Demon twins Towa and Setsuna are separated from each other during a forest fire. While desperately searching for her younger sister, Towa wanders into a mysterious tunnel that sends her into present-day Japan, where she is found and raised by Kagome Higurashi’s brother, Sota, and his family.\n<br><br>\nTen years later, the tunnel that connects the two eras has reopened, allowing Towa to be reunited with Setsuna, who is now a Demon Slayer working for Kohaku. But to Towa’s shock, Setsuna appears to have lost all memories of her older sister.\n<br><br>\nJoined by Moroha, the daughter of Inuyasha and Kagome, the three young women travel between the two eras on an adventure to regain their missing past.\n<br><br>\n(Source: Viz Media)",
      "genres": ["Action", "Adventure", "Fantasy"],
      "rating": 65,
      "color": "#5dd6e4",
      "type": "TV",
      "releaseDate": 2020
    },
    {
      "id": "123330",
      "malId": 42745,
      "title": {
        "romaji": "Machikado Mazoku: 2-Choume",
        "english": "The Demon Girl Next Door Season 2",
        "native": "まちカドまぞく 2丁目",
        "userPreferred": "Machikado Mazoku: 2-Choume"
      },
      "status": "Completed",
      "image": "https://s4.anilist.co/file/anilistcdn/media/anime/cover/large/bx123330-AU2jllC75uSE.png",
      "cover": "https://s4.anilist.co/file/anilistcdn/media/anime/banner/123330-g5hGEeefeioP.jpg",
      "popularity": 18657,
      "totalEpisodes": 12,
      "currentEpisode": null,
      "countryOfOrigin": "JP",
      "description": "The second season of <i>Machikado Mazoku</i>.<br>\n<br>\nShamiko, AKA Shadow Mistress Yuuko, aims to break the curse placed on her family by the Clan of Light. Along the way, she forms an unlikely allegiance with Momo, a rival from the Light Clan! They’ll need to work together to find another magical girl who’s gone mysteriously missing, and what this? There’s a dangerous force lurking somewhere in the city, plus Shamiko’s mysterious father might be closer than she thinks?<br>\n<br>\n(Source: Sentai Filmworks)",
      "genres": ["Comedy", "Fantasy", "Mahou Shoujo", "Slice of Life"],
      "rating": 78,
      "color": "#e4ae50",
      "type": "TV",
      "releaseDate": 2022
    },
    {
      "id": "6895",
      "malId": 6895,
      "title": {
        "romaji": "Hakuouki",
        "english": "Hakuoki: Demon of the Fleeting Blossom",
        "native": "薄桜鬼",
        "userPreferred": "Hakuouki"
      },
      "status": "Completed",
      "image": "https://s4.anilist.co/file/anilistcdn/media/anime/cover/large/bx6895-S4QTn9uPlVrL.png",
      "cover": "https://s4.anilist.co/file/anilistcdn/media/anime/banner/6895-80ov7fZRCJam.jpg",
      "popularity": 18368,
      "totalEpisodes": 12,
      "currentEpisode": null,
      "countryOfOrigin": "JP",
      "description": "The protagonist, Yukimura Chizuru, is the daughter of a doctor who works in Edo. The father leaves Edo to work as a volunteer doctor and moves to Kyoto without his daughter. As time passes by, Chizuru starts worrying about losing contact with her father, so she decides to go to Kyoto in search of him. On the way, Chizuru is attacked by few criminals and witnesses a fight between an oni and the Shinsengumi. Taking her into custody and saving her, the Shinsengumi debate on what to do with Chizuru when they discover that she is the daughter of the doctor they are also looking for. So they decide to become Chizuru's protectors and help her look for her father (the doctor). Lots of events happen while she stays with the Shinsengumi, as they discover mysterious secrets and also fight against the Bakumatsu group. The story is overall romantic with a historical and political background. <br><br>\n(Source: Hakuouki official website) ",
      "genres": ["Action", "Drama", "Supernatural"],
      "rating": 67,
      "color": "#1a436b",
      "type": "TV",
      "releaseDate": 2010
    },
    {
      "id": "8476",
      "malId": 8476,
      "title": {
        "romaji": "Otome Youkai Zakuro",
        "english": "Zakuro",
        "native": "おとめ妖怪 ざくろ",
        "userPreferred": "Otome Youkai Zakuro"
      },
      "status": "Completed",
      "image": "https://s4.anilist.co/file/anilistcdn/media/anime/cover/large/bx8476-zqkDcM6hrqNy.jpg",
      "cover": "https://s4.anilist.co/file/anilistcdn/media/anime/banner/8476-eIT1jTa6WVpM.jpg",
      "popularity": 16103,
      "totalEpisodes": 13,
      "currentEpisode": null,
      "countryOfOrigin": "JP",
      "description": "Westernization, a time when humans and spirits coexist. <br><br>\nThe modernization of Japan has begun. The Ministry of Spirit Affairs is established to resolve mysterious incidents involving the nation&rsquo;s spirits. This ministry consists of representatives from both the human and spirit worlds. Zakuro, Susukihotaru, Bonbori, and Hozuki are all half-spirits who have been partnered with the second lieutenants Kei, Riken, and Ganryu. These half-spirit girls and the male second lieutenants are all assigned to Spirit Affairs in an effort to join forces and carry out any tasks given to them! <br><br>\n(Source: NIS America) ",
      "genres": ["Romance", "Supernatural"],
      "rating": 70,
      "color": "#d6ae78",
      "type": "TV",
      "releaseDate": 2010
    },
    {
      "id": "141821",
      "malId": 50392,
      "title": {
        "romaji": "Mato Seihei no Slave",
        "english": null,
        "native": "魔都精兵のスレイブ",
        "userPreferred": "Mato Seihei no Slave"
      },
      "status": "Not yet aired",
      "image": "https://s4.anilist.co/file/anilistcdn/media/anime/cover/large/bx141821-zcb9vufIMobK.jpg",
      "cover": "https://s4.anilist.co/file/anilistcdn/media/anime/banner/141821-KIRWH28jXINm.jpg",
      "popularity": 13695,
      "totalEpisodes": null,
      "currentEpisode": null,
      "countryOfOrigin": "JP",
      "description": "The demon-filled dimension known as \"Mato\" has opened to threaten humanity, and a type of \"peach\" tree that grows there yields fruit that confers special powers to those who eat it, giving humanity a fighting chance, but this only works for women. As such, as protectors of humanity, women rise in social status while men are relegated to second-class citizens scraping for basic occupation and acknowledgment.\n<br><br>\nCue Yuuki Wakura, a domestically crafty and laborious high school senior whose older sister was taken during a Mato event 5 years before; while lamenting the hardships of the life ahead of him, an event opens before him, and while being rescued from demons by Captain Kyouka of the Anti-Demon Corps, she confers his powers as her \"slave\" and turns him into a mighty beast mount that mows down the demons.\n<br><br>\nHowever, there is a surprising price to pay for being her \"slave\"... and it's not him who has to pay it.",
      "genres": ["Action", "Adventure", "Drama", "Ecchi", "Fantasy", "Romance"],
      "rating": null,
      "color": "#e46b50",
      "type": "TV",
      "releaseDate": 2024
    },
    {
      "id": "10083",
      "malId": 10083,
      "title": {
        "romaji": "Shiki Specials",
        "english": null,
        "native": "屍鬼",
        "userPreferred": "Shiki Specials"
      },
      "status": "Completed",
      "image": "https://s4.anilist.co/file/anilistcdn/media/anime/cover/large/bx10083-IU7i4ISyY1WA.jpg",
      "cover": null,
      "popularity": 12392,
      "totalEpisodes": 2,
      "currentEpisode": null,
      "countryOfOrigin": "JP",
      "description": "The official website of the Shiki television anime series confirmed on Saturday that the anime's eighth and ninth Blu-ray Disc/DVD volumes will each include an unaired episode. The eighth volume will ship with Episode 21 and the unaired episode \"Dai Futat&#333; to Han wa\" (a wordplay for \"Episode 20.5\") on May 25, 2011, while the ninth volume will ship with Episode 22 and the unaired episode \"Dai Futat&#333;-ichi to Han wa\" (\"Episode 21.5\") on June 22.\n<br><br>\n(Source: Anime News Network)",
      "genres": ["Horror", "Mystery", "Supernatural", "Thriller"],
      "rating": 75,
      "color": null,
      "type": "SPECIAL",
      "releaseDate": 2011
    },
    {
      "id": "1107",
      "malId": 1107,
      "title": {
        "romaji": "Youjuu Toshi",
        "english": "Wicked City",
        "native": "妖獣都市",
        "userPreferred": "Youjuu Toshi"
      },
      "status": "Completed",
      "image": "https://s4.anilist.co/file/anilistcdn/media/anime/cover/large/nx1107-YRi1VB2Y80g3.png",
      "cover": "https://s4.anilist.co/file/anilistcdn/media/anime/banner/n1107-UBCtRLTeFSdp.jpg",
      "popularity": 11465,
      "totalEpisodes": 1,
      "currentEpisode": null,
      "countryOfOrigin": "JP",
      "description": "Beyond the boundaries of our ordinary existence lies a dreadful parallel world where demons dwell and humans dare not tread. For centuries, peace has existed between our world and theirs. To preserve that fragile balance and to ensure the survival of humankind, a new deal must be brokered, but dark and powerful forces lust to destroy the accord. When a militant group rises from the shadows, two elite agents are mobilized to counter the destructive forces and preserve the balance of our universe.<br><br>\n(Source: Sentai Filmworks)",
      "genres": [
        "Action",
        "Adventure",
        "Drama",
        "Ecchi",
        "Horror",
        "Supernatural"
      ],
      "rating": 60,
      "color": "#1a93d6",
      "type": "MOVIE",
      "releaseDate": 1987
    },
    {
      "id": "2985",
      "malId": 2985,
      "title": {
        "romaji": "Majin Tantei Nougami Neuro",
        "english": "Neuro: Supernatural Detective",
        "native": "魔人探偵 脳噛ネウロ",
        "userPreferred": "Majin Tantei Nougami Neuro"
      },
      "status": "Completed",
      "image": "https://s4.anilist.co/file/anilistcdn/media/anime/cover/medium/b2985-tfv7c225KMCs.jpg",
      "cover": "https://s4.anilist.co/file/anilistcdn/media/anime/banner/2985.jpg",
      "popularity": 8822,
      "totalEpisodes": 25,
      "currentEpisode": null,
      "countryOfOrigin": "JP",
      "description": "The series focuses on Neuro Nougami, a demon who feeds on mysteries and puzzles, who comes to the human world to feast on the mysteries offered by humans who release negative energy from their planned crimes. As a demon, he must not make his presence noticed by the humans as it is the law in the human world. Because of this, he makes a permanent deal with Yako Katsuragi (who has her own personal mystery she has to solve), and together they solve crimes for Neuro's appetite.",
      "genres": ["Comedy", "Mystery", "Supernatural"],
      "rating": 70,
      "color": "#9343f1",
      "type": "TV",
      "releaseDate": 2007
    }
  ]
}
